<?xml version="1.0" encoding="utf-8"?>
<!-- Generator: Adobe Illustrator 19.1.0, SVG Export Plug-In . SVG Version: 6.00 Build 0)  -->
<!DOCTYPE svg PUBLIC "-//W3C//DTD SVG 1.1//EN" "http://www.w3.org/Graphics/SVG/1.1/DTD/svg11.dtd">
<svg version="1.1" id="Livello_1" xmlns="http://www.w3.org/2000/svg" xmlns:xlink="http://www.w3.org/1999/xlink" x="0px" y="0px"
	 viewBox="492 0 20 20" style="enable-background:new 492 0 20 20;" xml:space="preserve">
<style type="text/css">
	.st0{fill:url(#SVGID_1_);}
</style>
<g id="gear-icon">
	<linearGradient id="SVGID_1_" gradientUnits="userSpaceOnUse" x1="492" y1="10" x2="512" y2="10">
		<stop  offset="0" style="stop-color:#53D3F8"/>
		<stop  offset="1" style="stop-color:#49E4AB"/>
	</linearGradient>
	<path class="st0" d="M502.6,1l0.3,0.8c0.3,0.8,0.9,1.5,1.7,1.8c0.4,0.2,0.8,0.2,1.2,0.2c0.5,0,0.9-0.1,1.3-0.3l0.8-0.4l0.9,0.9
		l-0.4,0.8c-0.4,0.8-0.4,1.7-0.1,2.5c0.3,0.8,1,1.4,1.8,1.7l0.8,0.3v1.3l-0.8,0.3c-0.8,0.3-1.5,0.9-1.8,1.7
		c-0.3,0.8-0.3,1.7,0.1,2.5l0.4,0.8l-0.9,0.9l-0.8-0.4c-0.4-0.2-0.9-0.3-1.3-0.3c-0.4,0-0.8,0.1-1.2,0.2c-0.8,0.3-1.4,1-1.7,1.8
		l-0.3,0.8h-1.3l-0.3-0.8c-0.3-0.8-0.9-1.5-1.7-1.8c-0.4-0.2-0.8-0.2-1.2-0.2c-0.5,0-0.9,0.1-1.3,0.3l-0.8,0.4l-0.9-0.9l0.4-0.8
		c0.4-0.8,0.4-1.7,0.1-2.5c-0.3-0.8-1-1.4-1.8-1.7l-0.8-0.3V9.4l0.8-0.3c0.8-0.3,1.5-0.9,1.8-1.7c0.3-0.8,0.3-1.7-0.1-2.5l-0.4-0.8
		l0.9-0.9l0.8,0.4c0.4,0.2,0.9,0.3,1.3,0.3c0.4,0,0.8-0.1,1.2-0.2c0.8-0.3,1.4-1,1.7-1.8l0.3-0.8H502.6 M502,14.7
		c2.6,0,4.7-2.1,4.7-4.7c0-2.6-2.1-4.7-4.7-4.7c-2.6,0-4.7,2.1-4.7,4.7C497.3,12.6,499.4,14.7,502,14.7 M503.3,0h-2.7l-0.5,1.5
		c-0.2,0.6-0.6,1-1.2,1.2c0,0,0,0,0,0c-0.3,0.1-0.5,0.2-0.8,0.2c-0.3,0-0.6-0.1-0.9-0.2L495.9,2L494,3.9l0.7,1.4
		c0.3,0.5,0.3,1.1,0,1.7c0,0,0,0,0,0c-0.2,0.5-0.7,1-1.2,1.2L492,8.7v2.7l1.5,0.5c0.6,0.2,1,0.6,1.2,1.2c0,0,0,0,0,0
		c0.2,0.5,0.2,1.2,0,1.7l-0.7,1.4l1.9,1.9l1.4-0.7c0.3-0.1,0.6-0.2,0.9-0.2c0.3,0,0.5,0.1,0.8,0.2c0,0,0,0,0,0
		c0.5,0.2,1,0.7,1.2,1.2l0.5,1.5h2.7l0.5-1.4c0.2-0.6,0.6-1,1.2-1.2c0,0,0,0,0,0c0.3-0.1,0.5-0.2,0.8-0.2c0.3,0,0.6,0.1,0.9,0.2
		l1.4,0.7l1.9-1.9l-0.7-1.4c-0.3-0.5-0.3-1.1,0-1.7c0,0,0,0,0,0c0.2-0.5,0.7-1,1.2-1.2l1.5-0.5V8.7l-1.5-0.5c-0.6-0.2-1-0.6-1.2-1.2
		c0,0,0,0,0,0c-0.2-0.5-0.2-1.2,0-1.7l0.7-1.4L508.1,2l-1.4,0.7c-0.3,0.1-0.6,0.2-0.9,0.2c-0.3,0-0.5-0.1-0.8-0.2c0,0,0,0,0,0
		c-0.5-0.2-1-0.7-1.2-1.2L503.3,0L503.3,0z M502,13.7c-2,0-3.7-1.6-3.7-3.7s1.6-3.7,3.7-3.7c2,0,3.7,1.6,3.7,3.7S504,13.7,502,13.7
		L502,13.7z"/>
</g>
</svg>
